{
  "project_info": {
    "project_number": "461214094611",
    "firebase_url": "https://loremwaffles.firebaseio.com",
    "project_id": "loremwaffles",
    "storage_bucket": "loremwaffles.appspot.com"
  },
  "client": [
    {
      "client_info": {
        "mobilesdk_app_id": "1:461214094611:android:5ee2852e9b88f3b9",
        "android_client_info": {
          "package_name": "com.example.logintest"
        }
      },
      "oauth_client": [
        {
          "client_id": "461214094611-9j53mehplclvooj4mevnq9di9b0d3djr.apps.googleusercontent.com",
          "client_type": 3
        }
      ],
      "api_key": [
        {
          "current_key": "AIzaSyBU5JNZrt0_TSyDTRW0b8dzkWJr6Xi7_DM"
        }
      ],
      "services": {
        "appinvite_service": {
          "other_platform_oauth_client": [
            {
              "client_id": "461214094611-9j53mehplclvooj4mevnq9di9b0d3djr.apps.googleusercontent.com",
              "client_type": 3
            }
          ]
        }
      }
    }
  ],
  "configuration_version": "1"
}